id;phone_number;body;status
1;pixel Missouri;Malta;SUCCESS
2;deposit Fish Concrete;Fresh Multi-channelled;PENDING
3;Usability Facilitator Savings;moratorium Customizable;FAILED
4;niches Inverse;Sharable Kids;PENDING
5;Soap sensor;mobile Small;SUCCESS
6;Public-key orchestrate quantifying;optimize navigate;PENDING
7;Bermuda client-driven system;Customer Mariana turquoise;PENDING
8;copying;Generic Ball program;PENDING
9;Fantastic Pizza;Florida auxiliary;PENDING
10;deg up Implementation;Executive;SUCCESS
