{
  "name": "Loyalty",
  "fields": [
    {
      "fieldName": "code",
      "fieldType": "String"
    },
    {
      "fieldName": "reward",
      "fieldType": "Integer"
    },
    {
      "fieldName": "date",
      "fieldType": "Instant"
    },
    {
      "fieldName": "shopName",
      "fieldType": "String"
    }
  ],
  "relationships": [
    {
      "relationshipType": "many-to-one",
      "otherEntityName": "user",
      "otherEntityRelationshipName": "loyalty",
      "relationshipName": "user"
    }
  ],
  "entityTableName": "loyalty",
  "dto": "mapstruct",
  "pagination": "pagination",
  "service": "serviceClass",
  "jpaMetamodelFiltering": true,
  "fluentMethods": true,
  "readOnly": false,
  "embedded": false,
  "applications": ["testingwizard"],
  "changelogDate": "20210922112629"
}
